{"projects":[{"id":"261a69b7","name":"test project 1","created_at":"2015-08-21T09:13:54Z","updated_at":"2016-02-28T03:45:32Z","max_devices":{"baremetal_0":10,"baremetal_1":5,"baremetal_3":1,"storage_1":1,"storage_2":1},"auto_charge":true,"billable":true,"staff":false,"members":[{"href":"/users/e34b8eec"}],"memberships":[{"href":"/memberships/89c5741a"}],"invitations":[],"payment_method":{"href":"/payment-methods/8bed021a"},"devices":[],"ssh_keys":[],"volumes":[],"price_policies":[],"discounts":[],"metering_limits":[],"href":"/projects/261a69b7"},{"id":"a4209ba5","name":"test project 2","created_at":"2015-12-12T06:18:17Z","updated_at":"2016-02-28T03:45:34Z","max_devices":{"baremetal_0":10,"baremetal_1":5,"baremetal_3":1,"storage_1":1,"storage_2":1},"auto_charge":true,"billable":true,"staff":false,"members":[{"href":"/users/7f014d49"}],"memberships":[{"href":"/memberships/d5e192c7"}],"invitations":[],"payment_method":{"href":"/payment-methods/90f69800"},"devices":[],"ssh_keys":[{"href":"/ssh-keys/aedbc017"},{"href":"/ssh-keys/e5045903"}],"volumes":[],"price_policies":[],"discounts":[],"metering_limits":[],"href":"/projects/a4209ba5"},{"id":"c9b4bd73","name":"test project 3","created_at":"2015-08-21T15:53:06Z","updated_at":"2016-02-28T03:45:35Z","max_devices":{"baremetal_0":10,"baremetal_1":5,"baremetal_3":1,"storage_1":1,"storage_2":1},"auto_charge":true,"billable":true,"staff":false,"members":[{"href":"/users/d6187c99"}],"memberships":[{"href":"/memberships/1e4f6b13"}],"invitations":[],"payment_method":{"href":"/payment-methods/0a98073b"},"devices":[],"ssh_keys":[],"volumes":[],"price_policies":[],"discounts":[],"metering_limits":[],"href":"/projects/c9b4bd73"}],"meta":{"first":{"href":"/projects?page=1"},"previous":null,"self":{"href":"/projects?page=1"},"next":{"href":"/projects?page=2"},"last":{"href":"/projects?page=187"},"total":18}}
